…
```
## 
## TME3 TME2 TME1 
##  119   96   85 
## # A tibble: 150 × 7
## # Groups:   cluster [3]
##       p_val avg_log2FC pct.1 pct.2 p_val_adj cluster gene    
##       <dbl>      <dbl> <dbl> <dbl>     <dbl> <fct>   <chr>   
##  1 3.05e-22      0.896     1     1  6.63e-18 TME3    TMEM100 
##  2 7.92e-22      1.13      1     1  1.72e-17 TME3    ADH1B   
##  3 1.61e-20      0.691     1     1  3.51e-16 TME3    HHIP    
##  4 1.93e-20      0.985     1     1  4.19e-16 TME3    ABCA8   
##  5 5.73e-20      0.701     1     1  1.25e-15 TME3    FCER1A  
##  6 9.42e-19      0.927     1     1  2.05e-14 TME3    MAMDC2  
##  7 1.61e-18      0.773     1     1  3.49e-14 TME3    C1QTNF7 
##  8 1.77e-18      0.718     1     1  3.85e-14 TME3    C16orf89
##  9 3.91e-18      0.729     1     1  8.51e-14 TME3    FHL1    
## 10 5.87e-18      0.684     1     1  1.28e-13 TME3    ITGA8   
## # ℹ 140 more rows
```
…
Finding characteristic variables associated with TME clusters

```r
res <- find_markers_in_bulk(pdata = tme, eset = sig_tme, group = "cluster", nfeatures = 1000, top_n = 20, min.pct = 0.10)
```

```
## 
## TME3 TME2 TME1 
##  119   96   85 
## # A tibble: 59 × 7
## # Groups:   cluster [3]
##       p_val avg_log2FC pct.1 pct.2 p_val_adj cluster gene                       
##       <dbl>      <dbl> <dbl> <dbl>     <dbl> <fct>   <chr>                      
##  1 1.05e-25       5.03 0.832 0.287  2.70e-23 TME3    Glycolysis                 
##  2 1.15e-23       3.76 0.79  0.238  2.93e-21 TME3    Tyrosine-Metabolism        
##  3 8.38e-18       4.07 0.756 0.32   2.15e-15 TME3    Drug-Metabolism-by-Cytochr…
##  4 8.59e-14       4.10 0.689 0.359  2.20e-11 TME3    Retinol-Metabolism         
##  5 2.59e-13       3.55 0.723 0.348  6.64e-11 TME3    Metabolism-of-Xenobiotics-…
##  6 5.99e-11      10.0  0.546 0.227  1.53e- 8 TME3    detox.iCAF                 
##  7 7.25e-11      10.6  0.571 0.26   1.86e- 8 TME3    Normal.Fibroblast          
##  8 2.32e-10       3.71 0.664 0.343  5.94e- 8 TME3    Ether-Lipid-Metabolism     
##  9 1.99e- 9       5.12 0.555 0.276  5.10e- 7 TME3    TMEscoreB-CIR              
## 10 2.23e- 8       3.43 0.664 0.387  5.71e- 6 TME3    Drug-Metabolism-by-other-e…
## # ℹ 49 more rows
```
…
