…
```
## 
##  IA  IE  IS 
## 107  96  97 
## # A tibble: 150 × 7
## # Groups:   cluster [3]
##       p_val avg_log2FC pct.1 pct.2 p_val_adj cluster gene  
##       <dbl>      <dbl> <dbl> <dbl>     <dbl> <fct>   <chr> 
##  1 3.37e-22      0.410     1     1  7.34e-18 IA      TAP1  
##  2 3.29e-20      0.632     1     1  7.15e-16 IA      IFNG  
##  3 2.58e-19      0.380     1     1  5.61e-15 IA      ETV7  
##  4 3.86e-19      0.403     1     1  8.39e-15 IA      MB21D1
##  5 1.81e-18      0.671     1     1  3.93e-14 IA      CXCL10
##  6 1.93e-17      0.421     1     1  4.20e-13 IA      MND1  
##  7 3.23e-17      0.369     1     1  7.02e-13 IA      PSMB9 
##  8 7.47e-17      0.378     1     1  1.62e-12 IA      CDT1  
##  9 1.01e-16      0.655     1     1  2.20e-12 IA      GZMB  
## 10 2.82e-16      0.817     1     1  6.12e-12 IA      CXCL11
## # ℹ 140 more rows
```
…
Finding signatures or cell types associated with TMEcluster

```r
res <- find_markers_in_bulk(pdata = tme, eset = sig_tme, group = "TMEcluster", nfeatures = 1000, top_n = 20, min.pct = 0.10)
```

```
## 
##  IA  IE  IS 
## 107  96  97 
## # A tibble: 60 × 7
## # Groups:   cluster [3]
##       p_val avg_log2FC pct.1 pct.2 p_val_adj cluster gene                       
##       <dbl>      <dbl> <dbl> <dbl>     <dbl> <fct>   <chr>                      
##  1 4.10e-31      11.6  0.907 0.29   1.05e-28 IA      TMEscore-plus              
##  2 1.05e-27      21.4  0.907 0.368  2.69e-25 IA      TMEscore-CIR               
##  3 2.83e-23       7.30 0.757 0.254  7.24e-21 IA      TMEscoreA-plus             
##  4 1.98e-17       8.88 0.701 0.316  5.07e-15 IA      TMEscoreA-CIR              
##  5 4.95e-15       5.30 0.673 0.275  1.27e-12 IA      CD-8-T-effector            
##  6 7.70e-15       3.67 0.71  0.332  1.97e-12 IA      Th1-cells-Bindea-et-al     
##  7 9.76e-11       5.39 0.673 0.342  2.50e- 8 IA      Cytotoxic-cells-Danaher-et…
##  8 8.78e-10       4.17 0.682 0.394  2.25e- 7 IA      NK-CD56dim-cells-Bindea-et…
##  9 3.27e- 9       8.11 0.673 0.415  8.36e- 7 IA      Antigen-Processing-and-Pre…
## 10 5.40e- 9       6.37 0.645 0.409  1.38e- 6 IA      T-cell-inflamed-GEP-Ayers-…
## # ℹ 50 more rows
```
…
