…
```
##               p_val avg_log2FC pct.1 pct.2     p_val_adj     cluster  gene
## RPS6  5.433910e-142  0.6874852 0.999 0.994 7.452065e-138 Naive_CD4_T  RPS6
## RPL32 5.645212e-138  0.6331843 0.999 0.995 7.741843e-134 Naive_CD4_T RPL32
## RPS12 5.615968e-137  0.7246307 1.000 0.990 7.701739e-133 Naive_CD4_T RPS12
## RPS27 1.903184e-131  0.7039172 0.999 0.992 2.610026e-127 Naive_CD4_T RPS27
## RPS25 2.355892e-127  0.7846319 0.997 0.973 3.230871e-123 Naive_CD4_T RPS25
## RPL31 3.961343e-121  0.7725688 0.996 0.963 5.432585e-117 Naive_CD4_T RPL31
## # A tibble: 450 × 7
## # Groups:   cluster [9]
##        p_val avg_log2FC pct.1 pct.2 p_val_adj cluster     gene  
##        <dbl>      <dbl> <dbl> <dbl>     <dbl> <fct>       <chr> 
##  1 5.43e-142      0.687 0.999 0.994 7.45e-138 Naive_CD4_T RPS6  
##  2 5.62e-137      0.725 1     0.99  7.70e-133 Naive_CD4_T RPS12 
##  3 1.90e-131      0.704 0.999 0.992 2.61e-127 Naive_CD4_T RPS27 
##  4 2.36e-127      0.785 0.997 0.973 3.23e-123 Naive_CD4_T RPS25 
##  5 3.96e-121      0.773 0.996 0.963 5.43e-117 Naive_CD4_T RPL31 
##  6 1.74e-113      0.743 0.996 0.969 2.38e-109 Naive_CD4_T RPL9  
##  7 1.08e-104      0.779 0.996 0.974 1.48e-100 Naive_CD4_T RPS3A 
##  8 3.04e-104      1.11  0.895 0.592 4.16e-100 Naive_CD4_T LDHB  
##  9 8.09e-101      0.749 0.996 0.964 1.11e- 96 Naive_CD4_T RPS27A
## 10 5.99e- 90      0.688 0.986 0.956 8.22e- 86 Naive_CD4_T RPS13 
## # ℹ 440 more rows
## >>>-- Aggreating scRNAseq data...
## >>>-- `orig.ident` was set as group. User can define through parameter `celltype` ...
```
…
