Chapter 5 TME deconvolution | IOBR (Immuno-Oncology Biological Research)
…
Generate reference matrix using generateRef_seurat function.

sm<- generateRef_seurat(sce = pbmc, celltype = "celltype", slot_out = "data")

## >>>---Assay used to find markers: 
## [1] ">>>>> RNA"
## 
##       Bcells    CD14_Mono    CD8_Tcell           DC  FCGR3A_Mono Memory_CD4_T 
##          349          491          339           36          159          467 
##  Naive_CD4_T           NK     Platelet 
##          696          148           15 
## >>> Find markers of each celltype... 
## # A tibble: 450 × 7
## # Groups:   cluster [9]
##        p_val avg_log2FC pct.1 pct.2 p_val_adj cluster     gene 
##        <dbl>      <dbl> <dbl> <dbl>     <dbl> <fct>       <chr>
##  1 5.43e-142      0.681 0.999 0.994 7.45e-138 Naive_CD4_T RPS6 
##  2 5.65e-138      0.626 0.999 0.995 7.74e-134 Naive_CD4_T RPL32
##  3 5.62e-137      0.716 1     0.99  7.70e-133 Naive_CD4_T RPS12
##  4 1.90e-131      0.695 0.999 0.992 2.61e-127 Naive_CD4_T RPS27
##  5 2.36e-127      0.765 0.997 0.973 3.23e-123 Naive_CD4_T RPS25
##  6 3.96e-121      0.751 0.996 0.963 5.43e-117 Naive_CD4_T RPL31
##  7 2.91e-120      0.605 0.999 0.995 3.99e-116 Naive_CD4_T RPS14
##  8 1.74e-113      0.727 0.996 0.969 2.38e-109 Naive_CD4_T RPL9 
##  9 4.38e-110      0.590 0.999 0.993 6.01e-106 Naive_CD4_T RPS3 
## 10 6.80e-108      0.665 0.997 0.979 9.33e-104 Naive_CD4_T RPL30
## # ℹ 440 more rows
## >>>-- Aggreating scRNAseq data...
## >>>-- `orig.ident` was set as group. User can define through parameter `celltype` ...
…
