Chapter 3 Tumor ecosystem analysis | IOBR (Immuno-Oncology Biological Research)
…
library(Seurat)
res <- find_markers_in_bulk(pdata      = tme, 
                            eset       = eset, 
                            group      = "TMEcluster", 
                            nfeatures  = 2000, 
                            top_n      = 20, 
                            thresh.use = 0.15, 
                            only.pos   = TRUE, 
                            min.pct    = 0.10)

## 
##  IA  IE  IS 
## 107  96  97 
## # A tibble: 56 × 7
## # Groups:   cluster [3]
##       p_val avg_log2FC pct.1 pct.2 p_val_adj cluster gene  
##       <dbl>      <dbl> <dbl> <dbl>     <dbl> <fct>   <chr> 
##  1 3.29e-20      0.218     1     1  7.15e-16 IA      IFNG  
##  2 1.81e-18      0.172     1     1  3.93e-14 IA      CXCL10
##  3 1.01e-16      0.183     1     1  2.20e-12 IA      GZMB  
##  4 2.82e-16      0.251     1     1  6.12e-12 IA      CXCL11
##  5 9.68e-16      0.170     1     1  2.10e-11 IA      CXCL9 
##  6 3.11e-15      0.221     1     1  6.77e-11 IA      IDO1  
##  7 9.90e-15      0.156     1     1  2.15e-10 IA      POLR3G
##  8 3.02e-14      0.184     1     1  6.57e-10 IA      GBP4  
##  9 9.23e-14      0.152     1     1  2.01e- 9 IA      ZBED2 
## 10 9.79e-12      0.155     1     1  2.13e- 7 IA      GNLY  
## # ℹ 46 more rows
…
##                   GSM1523727 GSM1523728 GSM1523729
## CD_8_T_effector   -2.5513794  0.7789141 -2.1770675
## DDR               -0.8747614  0.7425162 -1.3272054
## APM                1.1098368  2.1988688 -0.9516419
## Immune_Checkpoint -2.3701787  0.9455120 -1.4844104
## CellCycle_Reg      0.1063358  0.7583302 -0.3649795

寻找与TMEcluster相关的特征变量

res <- find_markers_in_bulk(pdata = tme, eset = sig_tme, group = "TMEcluster", nfeatures = 1000, top_n = 20, min.pct = 0.10)

## 
##  IA  IE  IS 
## 107  96  97 
## # A tibble: 58 × 7
## # Groups:   cluster [3]
##       p_val avg_log2FC pct.1 pct.2 p_val_adj cluster gene                       
##       <dbl>      <dbl> <dbl> <dbl>     <dbl> <fct>   <chr>                      
##  1 6.21e-19       4.07 0.701 0.316  1.59e-16 IA      IFNG-signature-Ayers-et-al 
##  2 1.82e-17       5.18 0.813 0.399  4.66e-15 IA      Th2-cells-Bindea-et-al     
##  3 2.60e-16       4.65 0.813 0.383  6.65e-14 IA      Folate-One-Carbon-Metaboli…
##  4 1.52e-15       5.12 0.804 0.352  3.89e-13 IA      Homologous-recombination   
##  5 4.95e-15       4.84 0.673 0.275  1.27e-12 IA      CD-8-T-effector            
##  6 7.70e-15       3.16 0.71  0.332  1.97e-12 IA      Th1-cells-Bindea-et-al     
##  7 9.52e-14       3.16 0.822 0.399  2.44e-11 IA      Purine-Biosynthesis        
##  8 1.42e-13       2.83 0.664 0.352  3.63e-11 IA      ADP-Ribosylation           
##  9 5.96e-13       2.96 0.785 0.42   1.53e-10 IA      TIP-Release-of-cancer-cell…
## 10 3.00e-12       2.71 0.776 0.409  7.68e-10 IA      Glycine--Serine-and-Threon…
## # ℹ 48 more rows
…
